# Cluster: Cluster 51
# Cluster name: Cluster
# Cluster noise flag: false
# Cluster size: 71
ID=3411
ID=3412
ID=3389
ID=3434
ID=3435
ID=3436
ID=3437
ID=3460
ID=3390
ID=3391
ID=3413
ID=3438
ID=3439
ID=3461
ID=3462
ID=3463
ID=3482
ID=3483
ID=3484
ID=3485
ID=3464
ID=3505
ID=3506
ID=3486
ID=3487
ID=3507
ID=3508
ID=3509
ID=3510
ID=3531
ID=3532
ID=3533
ID=3600
ID=3534
ID=3535
ID=3554
ID=3555
ID=3557
ID=3558
ID=3556
ID=3576
ID=3511
ID=3537
ID=3536
ID=3559
ID=3582
ID=3604
ID=3605
ID=3622
ID=3623
ID=3624
ID=3625
ID=3626
ID=3577
ID=3578
ID=3579
ID=3580
ID=3581
ID=3601
ID=3602
ID=3603
ID=3659
ID=3660
ID=3627
ID=3657
ID=3658
ID=3656
ID=3661
ID=3662
ID=3663
ID=3664
