# Cluster: Cluster 7
# Cluster name: Cluster
# Cluster noise flag: false
# Cluster size: 59
ID=2631
ID=2632
ID=2633
ID=2634
ID=2516
ID=2635
ID=2636
ID=2637
ID=2599
ID=2600
ID=2601
ID=2602
ID=2603
ID=2604
ID=2581
ID=2582
ID=2540
ID=2584
ID=2585
ID=2583
ID=2586
ID=2587
ID=2588
ID=2589
ID=2590
ID=2591
ID=2592
ID=2593
ID=2594
ID=2595
ID=2596
ID=2597
ID=2598
ID=2682
ID=2683
ID=2684
ID=2568
ID=2680
ID=2681
ID=2679
ID=2685
ID=2686
ID=2687
ID=2688
ID=2689
ID=2690
ID=2691
ID=2692
ID=2693
ID=2694
ID=2695
ID=2700
ID=2701
ID=2702
ID=2638
ID=2696
ID=2697
ID=2698
ID=2699
