# Cluster: Cluster 0
# Cluster name: Cluster
# Cluster noise flag: false
# Cluster size: 38
ID=4660
ID=4706
ID=4757
ID=4799
ID=4834
ID=4882
ID=4932
ID=4951
ID=4967
ID=4985
ID=5007
ID=4984
ID=5067
ID=5068
ID=5030
ID=5083
ID=5095
ID=5119
ID=5120
ID=5109
ID=5134
ID=5135
ID=5148
ID=5167
ID=5188
ID=5209
ID=5235
ID=5258
ID=5234
ID=5257
ID=5263
ID=5269
ID=5264
ID=5276
ID=5282
ID=5286
ID=5291
ID=5295
