# Cluster: Cluster 27
# Cluster name: Cluster
# Cluster noise flag: false
# Cluster size: 344
ID=632
ID=645
ID=503
ID=2021
ID=3293
ID=5136
ID=5270
ID=3406
ID=3455
ID=3527
ID=3525
ID=3594
ID=689
ID=766
ID=617
ID=4897
ID=4952
ID=1613
ID=2063
ID=1866
ID=1888
ID=3489
ID=3996
ID=1062
ID=3447
ID=3381
ID=3402
ID=4417
ID=4586
ID=2093
ID=2103
ID=1448
ID=1876
ID=1947
ID=1688
ID=2025
ID=2169
ID=1537
ID=1553
ID=1687
ID=1196
ID=1241
ID=1065
ID=1485
ID=1493
ID=1380
ID=1963
ID=1996
ID=2058
ID=2743
ID=2778
ID=2886
ID=2801
ID=1074
ID=1090
ID=1130
ID=1161
ID=1193
ID=1263
ID=1307
ID=1583
ID=1629
ID=1425
ID=1452
ID=1466
ID=5114
ID=5129
ID=1373
ID=1414
ID=1471
ID=1566
ID=1645
ID=1512
ID=1695
ID=1732
ID=1665
ID=1689
ID=1308
ID=1314
ID=1350
ID=1044
ID=1085
ID=1152
ID=1182
ID=1045
ID=1066
ID=1183
ID=1132
ID=1138
ID=1164
ID=1184
ID=1211
ID=1782
ID=1796
ID=1797
ID=1849
ID=935
ID=952
ID=975
ID=1021
ID=1028
ID=1049
ID=1050
ID=840
ID=869
ID=801
ID=1030
ID=1095
ID=1096
ID=1125
ID=1139
ID=1145
ID=1235
ID=1319
ID=1277
ID=1331
ID=1478
ID=1494
ID=2045
ID=2749
ID=1424
ID=1727
ID=1786
ID=1880
ID=1935
ID=1954
ID=1988
ID=1944
ID=2056
ID=2057
ID=2109
ID=2143
ID=2195
ID=2476
ID=2110
ID=2144
ID=2122
ID=2746
ID=2814
ID=2400
ID=2891
ID=2916
ID=2978
ID=3097
ID=2829
ID=2830
ID=3298
ID=3319
ID=2454
ID=2473
ID=2571
ID=1718
ID=1736
ID=1719
ID=1744
ID=1764
ID=1802
ID=3229
ID=3230
ID=3093
ID=3094
ID=4758
ID=5069
ID=5168
ID=5189
ID=5236
ID=5287
ID=4883
ID=4968
ID=5031
ID=5070
ID=4969
ID=938
ID=939
ID=926
ID=1036
ID=1078
ID=1355
ID=1790
ID=1064
ID=1124
ID=1180
ID=1205
ID=995
ID=996
ID=1093
ID=1157
ID=1204
ID=1233
ID=1248
ID=1163
ID=1218
ID=1101
ID=1386
ID=1470
ID=1345
ID=1372
ID=1413
ID=1346
ID=1292
ID=963
ID=1015
ID=1107
ID=1084
ID=1094
ID=997
ID=1014
ID=1115
ID=1226
ID=1181
ID=1330
ID=1447
ID=1392
ID=1588
ID=1739
ID=2048
ID=1750
ID=1891
ID=1234
ID=1253
ID=1318
ID=1587
ID=1462
ID=1531
ID=1116
ID=1117
ID=1484
ID=1492
ID=1596
ID=1609
ID=1573
ID=1869
ID=1901
ID=1836
ID=1723
ID=1768
ID=1701
ID=1981
ID=1982
ID=2007
ID=1875
ID=2083
ID=2092
ID=2158
ID=1658
ID=1664
ID=1672
ID=993
ID=1022
ID=937
ID=1042
ID=1056
ID=953
ID=983
ID=1168
ID=1177
ID=1178
ID=1136
ID=1143
ID=1268
ID=1274
ID=994
ID=1092
ID=1114
ID=1123
ID=1210
ID=1270
ID=1284
ID=1339
ID=1398
ID=1412
ID=1595
ID=1749
ID=1552
ID=1565
ID=1714
ID=1748
ID=1883
ID=1938
ID=2015
ID=2016
ID=1013
ID=1024
ID=1354
ID=1363
ID=1113
ID=1195
ID=1467
ID=1371
ID=1427
ID=1491
ID=1551
ID=1151
ID=1203
ID=1525
ID=1580
ID=1225
ID=1247
ID=1276
ID=1298
ID=1317
ID=1460
ID=1499
ID=1544
ID=1637
ID=1643
ID=1670
ID=1522
ID=1542
ID=2457
ID=2487
ID=5100
ID=5101
ID=1729
ID=1730
ID=1721
ID=1571
ID=1788
ID=1684
ID=1765
ID=1853
ID=1921
ID=1956
ID=1833
ID=1834
ID=1747
ID=1842
ID=1929
ID=1999
ID=1805
ID=2296
ID=2317
ID=2489
ID=2626
ID=2846
ID=2895
ID=2750
ID=2784
ID=2622
ID=2856
ID=3114
ID=3414
ID=2858
ID=3301
