# Cluster: Cluster 56
# Cluster name: Cluster
# Cluster noise flag: false
# Cluster size: 47
ID=2038
ID=2046
ID=2031
ID=2059
ID=2067
ID=2081
ID=2089
ID=2074
ID=2100
ID=2111
ID=2112
ID=2099
ID=2123
ID=2164
ID=2175
ID=2145
ID=2196
ID=2217
ID=2241
ID=2271
ID=2270
ID=2297
ID=2401
ID=2456
ID=2318
ID=2149
ID=2150
ID=2151
ID=2101
ID=2131
ID=2132
ID=2133
ID=2134
ID=2147
ID=2148
ID=2146
ID=2176
ID=2113
ID=2114
ID=2115
ID=2124
ID=2125
ID=2126
ID=2127
ID=2128
ID=2129
ID=2130
