# Cluster: Cluster 39
# Cluster name: Cluster
# Cluster noise flag: false
# Cluster size: 40
ID=1957
ID=1966
ID=1973
ID=1946
ID=1980
ID=1990
ID=1998
ID=2006
ID=2014
ID=2032
ID=2039
ID=2024
ID=2047
ID=2060
ID=2068
ID=2075
ID=2082
ID=2090
ID=2102
ID=2116
ID=2135
ID=2136
ID=2152
ID=2153
ID=2154
ID=2165
ID=2177
ID=2155
ID=2156
ID=2157
ID=2218
ID=2242
ID=2197
ID=2298
ID=2319
ID=2272
ID=2403
ID=2402
ID=2458
ID=2467
