# Cluster: Cluster 22
# Cluster name: Cluster
# Cluster noise flag: false
# Cluster size: 61
ID=3969
ID=4009
ID=4048
ID=4091
ID=4137
ID=4138
ID=4136
ID=4132
ID=4133
ID=4134
ID=4135
ID=4139
ID=4140
ID=4141
ID=4142
ID=4143
ID=4144
ID=4145
ID=4146
ID=3970
ID=4010
ID=4050
ID=4092
ID=4204
ID=4205
ID=4206
ID=4207
ID=4208
ID=4209
ID=4210
ID=4211
ID=4147
ID=4148
ID=4149
ID=4150
ID=4049
ID=4199
ID=4200
ID=4198
ID=4202
ID=4203
ID=4201
ID=4213
ID=4214
ID=4212
ID=4051
ID=4215
ID=4216
ID=4217
ID=4218
ID=4219
ID=4220
ID=4221
ID=4151
ID=4152
ID=4153
ID=4154
ID=4155
ID=4156
ID=4157
ID=4158
