# Cluster: Cluster 33
# Cluster name: Cluster
# Cluster noise flag: false
# Cluster size: 46
ID=5096
ID=5097
ID=5110
ID=5111
ID=5112
ID=5142
ID=5122
ID=5123
ID=5124
ID=5125
ID=5126
ID=5137
ID=5138
ID=5121
ID=5139
ID=5140
ID=5141
ID=5154
ID=5150
ID=5151
ID=5149
ID=5152
ID=5153
ID=5169
ID=5191
ID=5190
ID=5192
ID=5193
ID=5171
ID=5172
ID=5170
ID=5173
ID=5174
ID=5210
ID=5243
ID=5211
ID=5212
ID=5213
ID=5214
ID=5237
ID=5238
ID=5259
ID=5239
ID=5240
ID=5241
ID=5242
